<svg width="29" height="29" viewBox="0 0 29 29" fill="none" xmlns="http://www.w3.org/2000/svg">
<g id="shopping-bag-02">
<path id="Icon" d="M19.3338 10.875V7.25002C19.3338 4.58064 17.1698 2.41669 14.5005 2.41669C11.8311 2.41669 9.66713 4.58064 9.66713 7.25002V10.875M4.3408 12.5086L3.6158 20.242C3.40967 22.4408 3.3066 23.5402 3.67144 24.3894C3.99195 25.1353 4.55361 25.7521 5.26641 26.1408C6.07781 26.5834 7.18203 26.5834 9.39048 26.5834H19.6104C21.8189 26.5834 22.9231 26.5834 23.7345 26.1408C24.4473 25.7521 25.009 25.1353 25.3295 24.3894C25.6943 23.5402 25.5913 22.4408 25.3851 20.242L24.6601 12.5086C24.4861 10.6519 24.399 9.72352 23.9815 9.02163C23.6137 8.40348 23.0704 7.9087 22.4206 7.60025C21.6828 7.25002 20.7503 7.25002 18.8855 7.25002L10.1155 7.25002C8.25059 7.25002 7.31815 7.25002 6.58035 7.60025C5.93056 7.90869 5.38723 8.40348 5.01947 9.02163C4.60191 9.72352 4.51487 10.6519 4.3408 12.5086Z" stroke="white" stroke-width="2" stroke-linecap="round" stroke-linejoin="round"/>
</g>
</svg>
